module gitlab.com/etke.cc/tools/emm

go 1.17

require maunium.net/go/mautrix v0.16.2

require (
	github.com/btcsuite/btcutil v1.0.2 // indirect
	github.com/mattn/go-colorable v0.1.13 // indirect
	github.com/mattn/go-isatty v0.0.20 // indirect
	github.com/rs/zerolog v1.31.0 // indirect
	github.com/tidwall/gjson v1.17.0 // indirect
	github.com/tidwall/match v1.1.1 // indirect
	github.com/tidwall/pretty v1.2.1 // indirect
	github.com/tidwall/sjson v1.2.5 // indirect
	go.mau.fi/util v0.2.1 // indirect
	golang.org/x/crypto v0.16.0 // indirect
	golang.org/x/exp v0.0.0-20231127185646-65229373498e // indirect
	golang.org/x/net v0.19.0 // indirect
	golang.org/x/sys v0.15.0 // indirect
	maunium.net/go/maulogger/v2 v2.4.1 // indirect
)
